<mxfile host="app.diagrams.net" modified="2023-07-06T04:04:34.568Z" agent="Mozilla/5.0 (X11; Linux x86_64) AppleWebKit/537.36 (KHTML, like Gecko) Chrome/86.0.4240.111 Safari/537.36" etag="ZQC-Bcn3BXAm9P8fnSXD" version="21.6.1" type="google">
  <diagram name="Página-1" id="OX-Z0VEKYzmM95mMQNKq">
    <mxGraphModel grid="0" page="1" gridSize="10" guides="1" tooltips="1" connect="1" arrows="1" fold="1" pageScale="1" pageWidth="827" pageHeight="1169" math="0" shadow="0">
      <root>
        <mxCell id="0" />
        <mxCell id="1" parent="0" />
        <mxCell id="Tk6mO5gWP-npZVHF49Vz-3" value="" style="rounded=0;whiteSpace=wrap;html=1;fillColor=none;spacing=-2;" vertex="1" parent="1">
          <mxGeometry x="50" y="460" width="624" height="160" as="geometry" />
        </mxCell>
        <mxCell id="n5y9mphLyw2fzNmgePF--120" style="rounded=0;orthogonalLoop=1;jettySize=auto;html=1;endArrow=none;endFill=0;spacing=-2;exitX=0.5;exitY=0.994;exitDx=0;exitDy=0;exitPerimeter=0;entryX=0.168;entryY=0.004;entryDx=0;entryDy=0;entryPerimeter=0;" edge="1" parent="1" source="n5y9mphLyw2fzNmgePF--119" target="Tk6mO5gWP-npZVHF49Vz-3">
          <mxGeometry relative="1" as="geometry">
            <mxPoint x="220" y="407" as="targetPoint" />
          </mxGeometry>
        </mxCell>
        <mxCell id="n5y9mphLyw2fzNmgePF--121" style="rounded=0;orthogonalLoop=1;jettySize=auto;html=1;endArrow=none;endFill=0;spacing=-2;entryX=0.499;entryY=0.995;entryDx=0;entryDy=0;entryPerimeter=0;exitX=0.498;exitY=0.006;exitDx=0;exitDy=0;exitPerimeter=0;" edge="1" parent="1" source="n5y9mphLyw2fzNmgePF--119" target="n5y9mphLyw2fzNmgePF--1">
          <mxGeometry relative="1" as="geometry">
            <mxPoint x="160" y="272" as="targetPoint" />
          </mxGeometry>
        </mxCell>
        <mxCell id="n5y9mphLyw2fzNmgePF--119" value="Alquillan" style="rhombus;whiteSpace=wrap;html=1;spacing=-2;" vertex="1" parent="1">
          <mxGeometry x="115" y="329" width="80" height="80" as="geometry" />
        </mxCell>
        <mxCell id="n5y9mphLyw2fzNmgePF--130" value="N" style="text;html=1;align=center;verticalAlign=middle;resizable=0;points=[];autosize=1;strokeColor=none;fillColor=none;spacing=-2;" vertex="1" parent="1">
          <mxGeometry x="156" y="274" width="19" height="18" as="geometry" />
        </mxCell>
        <mxCell id="Tk6mO5gWP-npZVHF49Vz-7" style="rounded=0;orthogonalLoop=1;jettySize=auto;html=1;entryX=0.717;entryY=0;entryDx=0;entryDy=0;entryPerimeter=0;endArrow=none;endFill=0;spacing=-2;exitX=0.5;exitY=0.994;exitDx=0;exitDy=0;exitPerimeter=0;" edge="1" parent="1" source="n5y9mphLyw2fzNmgePF--122" target="Tk6mO5gWP-npZVHF49Vz-3">
          <mxGeometry relative="1" as="geometry" />
        </mxCell>
        <mxCell id="n5y9mphLyw2fzNmgePF--116" style="rounded=0;orthogonalLoop=1;jettySize=auto;html=1;exitX=0;exitY=0.5;exitDx=0;exitDy=0;entryX=1;entryY=0.5;entryDx=0;entryDy=0;endSize=6;endArrow=none;endFill=0;spacing=-2;" edge="1" parent="1" source="n5y9mphLyw2fzNmgePF--114" target="n5y9mphLyw2fzNmgePF--74">
          <mxGeometry relative="1" as="geometry">
            <mxPoint x="280.4799999999998" y="539" as="sourcePoint" />
            <mxPoint x="214.6400000000001" y="536.7399999999999" as="targetPoint" />
          </mxGeometry>
        </mxCell>
        <mxCell id="n5y9mphLyw2fzNmgePF--115" style="rounded=0;orthogonalLoop=1;jettySize=auto;html=1;entryX=0;entryY=0.5;entryDx=0;entryDy=0;endArrow=none;endFill=0;spacing=-2;exitX=0.966;exitY=0.497;exitDx=0;exitDy=0;exitPerimeter=0;" edge="1" parent="1" source="n5y9mphLyw2fzNmgePF--114" target="n5y9mphLyw2fzNmgePF--43">
          <mxGeometry relative="1" as="geometry" />
        </mxCell>
        <mxCell id="n5y9mphLyw2fzNmgePF--114" value="Maneja" style="rhombus;whiteSpace=wrap;html=1;spacing=-2;" vertex="1" parent="1">
          <mxGeometry x="284" y="490" width="80" height="80" as="geometry" />
        </mxCell>
        <mxCell id="n5y9mphLyw2fzNmgePF--62" value="Libreta" style="text;html=1;align=center;verticalAlign=middle;resizable=0;points=[];autosize=1;strokeColor=none;fillColor=none;spacing=-2;" vertex="1" parent="1">
          <mxGeometry x="589" y="527" width="47" height="18" as="geometry" />
        </mxCell>
        <mxCell id="n5y9mphLyw2fzNmgePF--61" value="" style="endArrow=none;html=1;rounded=0;entryX=0.984;entryY=0.414;entryDx=0;entryDy=0;entryPerimeter=0;spacing=-2;" edge="1" parent="1" source="n5y9mphLyw2fzNmgePF--62" target="n5y9mphLyw2fzNmgePF--43">
          <mxGeometry width="50" height="50" relative="1" as="geometry">
            <mxPoint x="305" y="590" as="sourcePoint" />
            <mxPoint x="381.39999999999986" y="509.58" as="targetPoint" />
          </mxGeometry>
        </mxCell>
        <mxCell id="n5y9mphLyw2fzNmgePF--117" value="1" style="text;html=1;align=center;verticalAlign=middle;resizable=0;points=[];autosize=1;strokeColor=none;fillColor=none;spacing=-2;" vertex="1" parent="1">
          <mxGeometry x="425" y="509" width="17" height="18" as="geometry" />
        </mxCell>
        <mxCell id="n5y9mphLyw2fzNmgePF--118" value="1" style="text;html=1;align=center;verticalAlign=middle;resizable=0;points=[];autosize=1;strokeColor=none;fillColor=none;spacing=-2;" vertex="1" parent="1">
          <mxGeometry x="214" y="509" width="17" height="18" as="geometry" />
        </mxCell>
        <mxCell id="n5y9mphLyw2fzNmgePF--131" value="N" style="text;html=1;align=center;verticalAlign=middle;resizable=0;points=[];autosize=1;strokeColor=none;fillColor=none;spacing=-2;" vertex="1" parent="1">
          <mxGeometry x="156" y="439" width="19" height="18" as="geometry" />
        </mxCell>
        <mxCell id="n5y9mphLyw2fzNmgePF--136" value="" style="endArrow=none;html=1;rounded=0;entryX=1;entryY=0.25;entryDx=0;entryDy=0;exitX=0.016;exitY=0.544;exitDx=0;exitDy=0;exitPerimeter=0;spacing=-2;" edge="1" parent="1" source="n5y9mphLyw2fzNmgePF--137" target="n5y9mphLyw2fzNmgePF--43">
          <mxGeometry width="50" height="50" relative="1" as="geometry">
            <mxPoint x="560" y="528" as="sourcePoint" />
            <mxPoint x="610" y="447" as="targetPoint" />
          </mxGeometry>
        </mxCell>
        <mxCell id="n5y9mphLyw2fzNmgePF--137" value="Hora_Llegada" style="text;html=1;align=center;verticalAlign=middle;resizable=0;points=[];autosize=1;strokeColor=none;fillColor=none;spacing=-2;" vertex="1" parent="1">
          <mxGeometry x="583.5" y="496" width="85" height="18" as="geometry" />
        </mxCell>
        <mxCell id="n5y9mphLyw2fzNmgePF--138" value="" style="endArrow=none;html=1;rounded=0;entryX=0.841;entryY=-0.005;entryDx=0;entryDy=0;exitX=0.001;exitY=0.544;exitDx=0;exitDy=0;exitPerimeter=0;entryPerimeter=0;spacing=-2;" edge="1" parent="1" source="n5y9mphLyw2fzNmgePF--139" target="n5y9mphLyw2fzNmgePF--43">
          <mxGeometry width="50" height="50" relative="1" as="geometry">
            <mxPoint x="540" y="458" as="sourcePoint" />
            <mxPoint x="672" y="413" as="targetPoint" />
          </mxGeometry>
        </mxCell>
        <mxCell id="n5y9mphLyw2fzNmgePF--139" value="Hora_Salida" style="text;html=1;align=center;verticalAlign=middle;resizable=0;points=[];autosize=1;strokeColor=none;fillColor=none;spacing=-2;" vertex="1" parent="1">
          <mxGeometry x="565" y="468" width="76" height="18" as="geometry" />
        </mxCell>
        <mxCell id="n5y9mphLyw2fzNmgePF--128" value="1" style="text;html=1;align=center;verticalAlign=middle;resizable=0;points=[];autosize=1;strokeColor=none;fillColor=none;spacing=-2;" vertex="1" parent="1">
          <mxGeometry x="497.5" y="439" width="17" height="18" as="geometry" />
        </mxCell>
        <mxCell id="n5y9mphLyw2fzNmgePF--43" value="Camionero" style="rounded=0;whiteSpace=wrap;html=1;spacing=-2;" vertex="1" parent="1">
          <mxGeometry x="445" y="500" width="120" height="60" as="geometry" />
        </mxCell>
        <mxCell id="n5y9mphLyw2fzNmgePF--44" value="" style="endArrow=none;html=1;rounded=0;entryX=0.75;entryY=1;entryDx=0;entryDy=0;spacing=-2;" edge="1" parent="1" source="n5y9mphLyw2fzNmgePF--45" target="n5y9mphLyw2fzNmgePF--43">
          <mxGeometry width="50" height="50" relative="1" as="geometry">
            <mxPoint x="465" y="640" as="sourcePoint" />
            <mxPoint x="541.3999999999999" y="559.5799999999999" as="targetPoint" />
          </mxGeometry>
        </mxCell>
        <mxCell id="n5y9mphLyw2fzNmgePF--45" value="Sexo" style="text;html=1;align=center;verticalAlign=middle;resizable=0;points=[];autosize=1;strokeColor=none;fillColor=none;spacing=-2;" vertex="1" parent="1">
          <mxGeometry x="532" y="586" width="37" height="18" as="geometry" />
        </mxCell>
        <mxCell id="n5y9mphLyw2fzNmgePF--46" value="Nombre_Completo" style="text;html=1;align=center;verticalAlign=middle;resizable=0;points=[];autosize=1;strokeColor=none;fillColor=none;spacing=-2;" vertex="1" parent="1">
          <mxGeometry x="347" y="576" width="111" height="18" as="geometry" />
        </mxCell>
        <mxCell id="n5y9mphLyw2fzNmgePF--48" value="" style="endArrow=none;html=1;rounded=0;exitX=0.47;exitY=-0.04;exitDx=0;exitDy=0;exitPerimeter=0;entryX=0.094;entryY=1.001;entryDx=0;entryDy=0;entryPerimeter=0;spacing=-2;" edge="1" parent="1" source="n5y9mphLyw2fzNmgePF--46" target="n5y9mphLyw2fzNmgePF--43">
          <mxGeometry width="50" height="50" relative="1" as="geometry">
            <mxPoint x="475" y="630" as="sourcePoint" />
            <mxPoint x="455" y="640" as="targetPoint" />
          </mxGeometry>
        </mxCell>
        <mxCell id="n5y9mphLyw2fzNmgePF--49" value="" style="endArrow=none;html=1;rounded=0;entryX=0.521;entryY=0.054;entryDx=0;entryDy=0;entryPerimeter=0;exitX=0.417;exitY=1.007;exitDx=0;exitDy=0;exitPerimeter=0;spacing=-2;" edge="1" parent="1" source="n5y9mphLyw2fzNmgePF--43" target="Jio4tpkQ6WQFZgSRBZeK-7">
          <mxGeometry width="50" height="50" relative="1" as="geometry">
            <mxPoint x="445" y="670" as="sourcePoint" />
            <mxPoint x="484" y="590" as="targetPoint" />
          </mxGeometry>
        </mxCell>
        <mxCell id="n5y9mphLyw2fzNmgePF--59" value="" style="endArrow=none;html=1;rounded=0;spacing=-2;entryX=0.999;entryY=0.67;entryDx=0;entryDy=0;entryPerimeter=0;" edge="1" parent="1" source="n5y9mphLyw2fzNmgePF--60" target="n5y9mphLyw2fzNmgePF--43">
          <mxGeometry width="50" height="50" relative="1" as="geometry">
            <mxPoint x="505" y="620" as="sourcePoint" />
            <mxPoint x="565" y="541" as="targetPoint" />
          </mxGeometry>
        </mxCell>
        <mxCell id="n5y9mphLyw2fzNmgePF--60" value="Telefono" style="text;html=1;align=center;verticalAlign=middle;resizable=0;points=[];autosize=1;strokeColor=none;fillColor=none;spacing=-2;" vertex="1" parent="1">
          <mxGeometry x="565" y="560" width="55" height="18" as="geometry" />
        </mxCell>
        <mxCell id="Tk6mO5gWP-npZVHF49Vz-12" value="Sanciones" style="rounded=0;whiteSpace=wrap;html=1;spacing=-2;" vertex="1" parent="1">
          <mxGeometry x="445" y="767" width="120" height="60" as="geometry" />
        </mxCell>
        <mxCell id="Tk6mO5gWP-npZVHF49Vz-17" style="rounded=0;orthogonalLoop=1;jettySize=auto;html=1;entryX=0.5;entryY=0;entryDx=0;entryDy=0;endArrow=none;endFill=0;spacing=-2;exitX=0.501;exitY=0.996;exitDx=0;exitDy=0;exitPerimeter=0;" edge="1" parent="1" source="Tk6mO5gWP-npZVHF49Vz-13" target="Tk6mO5gWP-npZVHF49Vz-12">
          <mxGeometry relative="1" as="geometry" />
        </mxCell>
        <mxCell id="Tk6mO5gWP-npZVHF49Vz-18" style="rounded=0;orthogonalLoop=1;jettySize=auto;html=1;entryX=0.5;entryY=1;entryDx=0;entryDy=0;endArrow=none;endFill=0;spacing=-2;exitX=0.499;exitY=0.011;exitDx=0;exitDy=0;exitPerimeter=0;" edge="1" parent="1" source="Tk6mO5gWP-npZVHF49Vz-13" target="n5y9mphLyw2fzNmgePF--43">
          <mxGeometry relative="1" as="geometry" />
        </mxCell>
        <mxCell id="Tk6mO5gWP-npZVHF49Vz-13" value="Recibe" style="rhombus;whiteSpace=wrap;html=1;spacing=-2;" vertex="1" parent="1">
          <mxGeometry x="465" y="651" width="80" height="80" as="geometry" />
        </mxCell>
        <mxCell id="Tk6mO5gWP-npZVHF49Vz-20" value="Tipo" style="text;html=1;align=center;verticalAlign=middle;resizable=0;points=[];autosize=1;strokeColor=none;fillColor=none;spacing=-2;" vertex="1" parent="1">
          <mxGeometry x="537" y="847" width="33" height="18" as="geometry" />
        </mxCell>
        <mxCell id="Tk6mO5gWP-npZVHF49Vz-29" value="" style="endArrow=none;html=1;rounded=0;exitX=0.529;exitY=-0.01;exitDx=0;exitDy=0;exitPerimeter=0;spacing=-2;entryX=0.703;entryY=0.997;entryDx=0;entryDy=0;entryPerimeter=0;" edge="1" parent="1" source="Tk6mO5gWP-npZVHF49Vz-20" target="Tk6mO5gWP-npZVHF49Vz-12">
          <mxGeometry width="50" height="50" relative="1" as="geometry">
            <mxPoint x="550" y="868" as="sourcePoint" />
            <mxPoint x="600" y="818" as="targetPoint" />
          </mxGeometry>
        </mxCell>
        <mxCell id="Tk6mO5gWP-npZVHF49Vz-32" value="N" style="text;html=1;align=center;verticalAlign=middle;resizable=0;points=[];autosize=1;strokeColor=none;fillColor=none;spacing=-2;" vertex="1" parent="1">
          <mxGeometry x="504" y="747" width="19" height="18" as="geometry" />
        </mxCell>
        <mxCell id="Tk6mO5gWP-npZVHF49Vz-35" value="N" style="text;html=1;align=center;verticalAlign=middle;resizable=0;points=[];autosize=1;strokeColor=none;fillColor=none;spacing=-2;" vertex="1" parent="1">
          <mxGeometry x="504" y="560" width="19" height="18" as="geometry" />
        </mxCell>
        <mxCell id="Tk6mO5gWP-npZVHF49Vz-36" value="&lt;u&gt;ID&lt;/u&gt;" style="text;html=1;align=center;verticalAlign=middle;resizable=0;points=[];autosize=1;strokeColor=none;fillColor=none;spacing=-2;" vertex="1" parent="1">
          <mxGeometry x="447" y="847" width="22" height="18" as="geometry" />
        </mxCell>
        <mxCell id="Tk6mO5gWP-npZVHF49Vz-37" value="" style="endArrow=none;html=1;rounded=0;exitX=0.676;exitY=0.053;exitDx=0;exitDy=0;exitPerimeter=0;entryX=0.313;entryY=1.003;entryDx=0;entryDy=0;entryPerimeter=0;spacing=-2;" edge="1" parent="1" source="Tk6mO5gWP-npZVHF49Vz-36" target="Tk6mO5gWP-npZVHF49Vz-12">
          <mxGeometry width="50" height="50" relative="1" as="geometry">
            <mxPoint x="379" y="821" as="sourcePoint" />
            <mxPoint x="454" y="811" as="targetPoint" />
          </mxGeometry>
        </mxCell>
        <mxCell id="Tk6mO5gWP-npZVHF49Vz-41" value="Metodo_pago" style="text;html=1;align=center;verticalAlign=middle;resizable=0;points=[];autosize=1;strokeColor=none;fillColor=none;spacing=-2;" vertex="1" parent="1">
          <mxGeometry x="214" y="326" width="83" height="18" as="geometry" />
        </mxCell>
        <mxCell id="Tk6mO5gWP-npZVHF49Vz-44" value="" style="endArrow=none;html=1;rounded=0;exitX=1;exitY=0;exitDx=0;exitDy=0;entryX=0.008;entryY=0.608;entryDx=0;entryDy=0;entryPerimeter=0;spacing=-2;" edge="1" parent="1" source="n5y9mphLyw2fzNmgePF--119" target="Tk6mO5gWP-npZVHF49Vz-41">
          <mxGeometry width="50" height="50" relative="1" as="geometry">
            <mxPoint x="270" y="440" as="sourcePoint" />
            <mxPoint x="320" y="390" as="targetPoint" />
          </mxGeometry>
        </mxCell>
        <mxCell id="Jio4tpkQ6WQFZgSRBZeK-5" value="ID" style="text;html=1;align=center;verticalAlign=middle;resizable=0;points=[];autosize=1;strokeColor=none;fillColor=none;fontStyle=4;spacing=-2;" vertex="1" parent="1">
          <mxGeometry x="444" y="596" width="22" height="18" as="geometry" />
        </mxCell>
        <mxCell id="Jio4tpkQ6WQFZgSRBZeK-6" value="" style="endArrow=none;html=1;rounded=0;entryX=0.6;entryY=0;entryDx=0;entryDy=0;entryPerimeter=0;exitX=0.238;exitY=1.001;exitDx=0;exitDy=0;exitPerimeter=0;spacing=-2;" edge="1" parent="1" source="n5y9mphLyw2fzNmgePF--43" target="Jio4tpkQ6WQFZgSRBZeK-5">
          <mxGeometry width="50" height="50" relative="1" as="geometry">
            <mxPoint x="469" y="560" as="sourcePoint" />
            <mxPoint x="469" y="620" as="targetPoint" />
          </mxGeometry>
        </mxCell>
        <mxCell id="Jio4tpkQ6WQFZgSRBZeK-7" value="CI" style="text;html=1;align=center;verticalAlign=middle;resizable=0;points=[];autosize=1;strokeColor=none;fillColor=none;fontSize=12;spacing=-2;" vertex="1" parent="1">
          <mxGeometry x="471" y="596" width="22" height="18" as="geometry" />
        </mxCell>
        <mxCell id="TIV-8o8_t6rbt8D1xTvP-6" value="Nro_Sancion" style="text;html=1;align=center;verticalAlign=middle;resizable=0;points=[];autosize=1;strokeColor=none;fillColor=none;spacing=-2;" vertex="1" parent="1">
          <mxGeometry x="537" y="658" width="79" height="18" as="geometry" />
        </mxCell>
        <mxCell id="TIV-8o8_t6rbt8D1xTvP-7" value="" style="endArrow=none;html=1;rounded=0;exitX=0.007;exitY=0.744;exitDx=0;exitDy=0;exitPerimeter=0;spacing=-2;entryX=0.779;entryY=0.276;entryDx=0;entryDy=0;entryPerimeter=0;" edge="1" parent="1" source="TIV-8o8_t6rbt8D1xTvP-6" target="Tk6mO5gWP-npZVHF49Vz-13">
          <mxGeometry width="50" height="50" relative="1" as="geometry">
            <mxPoint x="565" y="730" as="sourcePoint" />
            <mxPoint x="541" y="689" as="targetPoint" />
          </mxGeometry>
        </mxCell>
        <mxCell id="n5y9mphLyw2fzNmgePF--3" value="Nombre" style="text;html=1;align=center;verticalAlign=middle;resizable=0;points=[];autosize=1;strokeColor=none;fillColor=none;spacing=-2;" vertex="1" parent="1">
          <mxGeometry x="53" y="174" width="53" height="18" as="geometry" />
        </mxCell>
        <mxCell id="n5y9mphLyw2fzNmgePF--2" value="" style="endArrow=none;html=1;rounded=0;entryX=0.102;entryY=0.011;entryDx=0;entryDy=0;entryPerimeter=0;spacing=-2;" edge="1" parent="1" source="n5y9mphLyw2fzNmgePF--3" target="n5y9mphLyw2fzNmgePF--1">
          <mxGeometry width="50" height="50" relative="1" as="geometry">
            <mxPoint x="110" y="352" as="sourcePoint" />
            <mxPoint x="120" y="322" as="targetPoint" />
          </mxGeometry>
        </mxCell>
        <mxCell id="n5y9mphLyw2fzNmgePF--1" value="Clientes" style="rounded=0;whiteSpace=wrap;html=1;spacing=-2;" vertex="1" parent="1">
          <mxGeometry x="95" y="212" width="120" height="60" as="geometry" />
        </mxCell>
        <mxCell id="n5y9mphLyw2fzNmgePF--4" value="Ubicacion" style="text;html=1;align=center;verticalAlign=middle;resizable=0;points=[];autosize=1;strokeColor=none;fillColor=none;spacing=-2;" vertex="1" parent="1">
          <mxGeometry x="59" y="288" width="63" height="18" as="geometry" />
        </mxCell>
        <mxCell id="n5y9mphLyw2fzNmgePF--5" value="RUT" style="text;html=1;align=center;verticalAlign=middle;resizable=0;points=[];autosize=1;strokeColor=none;fillColor=none;fontStyle=4;spacing=-2;" vertex="1" parent="1">
          <mxGeometry x="15" y="222" width="35" height="18" as="geometry" />
        </mxCell>
        <mxCell id="n5y9mphLyw2fzNmgePF--6" value="" style="endArrow=none;html=1;rounded=0;exitX=0.643;exitY=0.054;exitDx=0;exitDy=0;exitPerimeter=0;entryX=0.11;entryY=0.993;entryDx=0;entryDy=0;entryPerimeter=0;spacing=-2;" edge="1" parent="1" source="n5y9mphLyw2fzNmgePF--4" target="n5y9mphLyw2fzNmgePF--1">
          <mxGeometry width="50" height="50" relative="1" as="geometry">
            <mxPoint x="130" y="342" as="sourcePoint" />
            <mxPoint x="110" y="352" as="targetPoint" />
          </mxGeometry>
        </mxCell>
        <mxCell id="n5y9mphLyw2fzNmgePF--7" value="" style="endArrow=none;html=1;rounded=0;exitX=0;exitY=0.5;exitDx=0;exitDy=0;spacing=-2;" edge="1" parent="1" source="n5y9mphLyw2fzNmgePF--1" target="n5y9mphLyw2fzNmgePF--5">
          <mxGeometry width="50" height="50" relative="1" as="geometry">
            <mxPoint x="100" y="222" as="sourcePoint" />
            <mxPoint x="150" y="332" as="targetPoint" />
          </mxGeometry>
        </mxCell>
        <mxCell id="n5y9mphLyw2fzNmgePF--10" value="&lt;font style=&quot;font-size: 9px;&quot;&gt;esquina&lt;/font&gt;" style="text;html=1;align=center;verticalAlign=middle;resizable=0;points=[];autosize=1;strokeColor=none;fillColor=none;spacing=-2;fontSize=9;" vertex="1" parent="1">
          <mxGeometry x="-26" y="315" width="42" height="14" as="geometry" />
        </mxCell>
        <mxCell id="n5y9mphLyw2fzNmgePF--11" value="&lt;font style=&quot;font-size: 9px;&quot;&gt;Codigo_Postal&lt;/font&gt;" style="text;html=1;align=center;verticalAlign=middle;resizable=0;points=[];autosize=1;strokeColor=none;fillColor=none;strokeWidth=0;spacing=-2;fontSize=9;" vertex="1" parent="1">
          <mxGeometry x="-50" y="282" width="69" height="14" as="geometry" />
        </mxCell>
        <mxCell id="n5y9mphLyw2fzNmgePF--13" value="" style="endArrow=none;html=1;rounded=0;entryX=0.016;entryY=0.498;entryDx=0;entryDy=0;entryPerimeter=0;spacing=-2;exitX=1.002;exitY=0.602;exitDx=0;exitDy=0;exitPerimeter=0;" edge="1" parent="1" source="n5y9mphLyw2fzNmgePF--11" target="n5y9mphLyw2fzNmgePF--4">
          <mxGeometry width="50" height="50" relative="1" as="geometry">
            <mxPoint x="30" y="342" as="sourcePoint" />
            <mxPoint x="80" y="292" as="targetPoint" />
            <Array as="points" />
          </mxGeometry>
        </mxCell>
        <mxCell id="n5y9mphLyw2fzNmgePF--58" value="" style="endArrow=none;html=1;rounded=0;exitX=0.995;exitY=0.597;exitDx=0;exitDy=0;exitPerimeter=0;entryX=0.016;entryY=0.498;entryDx=0;entryDy=0;entryPerimeter=0;spacing=-2;" edge="1" parent="1" source="n5y9mphLyw2fzNmgePF--10" target="n5y9mphLyw2fzNmgePF--4">
          <mxGeometry width="50" height="50" relative="1" as="geometry">
            <mxPoint y="342" as="sourcePoint" />
            <mxPoint x="50" y="292" as="targetPoint" />
          </mxGeometry>
        </mxCell>
        <mxCell id="hhjJuDrLIAq9c-_teWFN-1" value="&lt;span style=&quot;font-size: 9px;&quot;&gt;Call&lt;/span&gt;&lt;font style=&quot;font-size: 9px;&quot;&gt;e&lt;/font&gt;" style="text;html=1;align=center;verticalAlign=middle;resizable=0;points=[];autosize=1;strokeColor=none;fillColor=none;spacing=-2;fontSize=9;" vertex="1" parent="1">
          <mxGeometry x="-17" y="304" width="31" height="14" as="geometry" />
        </mxCell>
        <mxCell id="hhjJuDrLIAq9c-_teWFN-2" value="" style="endArrow=none;html=1;rounded=0;exitX=1.002;exitY=0.606;exitDx=0;exitDy=0;exitPerimeter=0;entryX=0.009;entryY=0.498;entryDx=0;entryDy=0;entryPerimeter=0;spacing=-2;" edge="1" parent="1" source="hhjJuDrLIAq9c-_teWFN-1" target="n5y9mphLyw2fzNmgePF--4">
          <mxGeometry width="50" height="50" relative="1" as="geometry">
            <mxPoint y="329" as="sourcePoint" />
            <mxPoint x="48" y="285" as="targetPoint" />
          </mxGeometry>
        </mxCell>
        <mxCell id="hhjJuDrLIAq9c-_teWFN-5" value="&lt;font style=&quot;font-size: 9px;&quot;&gt;Nro_Puerta&lt;/font&gt;" style="text;html=1;align=center;verticalAlign=middle;resizable=0;points=[];autosize=1;strokeColor=none;fillColor=none;spacing=-2;fontSize=9;" vertex="1" parent="1">
          <mxGeometry x="-38" y="292" width="56" height="14" as="geometry" />
        </mxCell>
        <mxCell id="hhjJuDrLIAq9c-_teWFN-6" value="" style="endArrow=none;html=1;rounded=0;exitX=1.003;exitY=0.602;exitDx=0;exitDy=0;exitPerimeter=0;entryX=0.019;entryY=0.498;entryDx=0;entryDy=0;entryPerimeter=0;spacing=-2;" edge="1" parent="1" source="hhjJuDrLIAq9c-_teWFN-5" target="n5y9mphLyw2fzNmgePF--4">
          <mxGeometry width="50" height="50" relative="1" as="geometry">
            <mxPoint y="319" as="sourcePoint" />
            <mxPoint x="48" y="275" as="targetPoint" />
          </mxGeometry>
        </mxCell>
        <mxCell id="n5y9mphLyw2fzNmgePF--124" style="rounded=0;orthogonalLoop=1;jettySize=auto;html=1;endArrow=none;endFill=0;spacing=-2;entryX=0.5;entryY=1;entryDx=0;entryDy=0;exitX=0.5;exitY=0.016;exitDx=0;exitDy=0;exitPerimeter=0;" edge="1" parent="1" source="n5y9mphLyw2fzNmgePF--122" target="n5y9mphLyw2fzNmgePF--63">
          <mxGeometry relative="1" as="geometry">
            <mxPoint x="501.5" y="240.0000000000001" as="targetPoint" />
            <mxPoint x="501" y="336" as="sourcePoint" />
          </mxGeometry>
        </mxCell>
        <mxCell id="n5y9mphLyw2fzNmgePF--122" value="Reparte" style="rhombus;whiteSpace=wrap;html=1;spacing=-2;" vertex="1" parent="1">
          <mxGeometry x="457" y="329" width="80" height="80" as="geometry" />
        </mxCell>
        <mxCell id="n5y9mphLyw2fzNmgePF--63" value="Paquetes" style="rounded=0;whiteSpace=wrap;html=1;spacing=-2;" vertex="1" parent="1">
          <mxGeometry x="437" y="212" width="120" height="60" as="geometry" />
        </mxCell>
        <mxCell id="n5y9mphLyw2fzNmgePF--64" value="" style="endArrow=none;html=1;rounded=0;entryX=-0.002;entryY=0.857;entryDx=0;entryDy=0;spacing=-2;entryPerimeter=0;exitX=1.01;exitY=0.47;exitDx=0;exitDy=0;exitPerimeter=0;" edge="1" parent="1" source="n5y9mphLyw2fzNmgePF--65" target="n5y9mphLyw2fzNmgePF--63">
          <mxGeometry width="50" height="50" relative="1" as="geometry">
            <mxPoint x="470" y="320" as="sourcePoint" />
            <mxPoint x="546.3999999999999" y="239.57999999999998" as="targetPoint" />
          </mxGeometry>
        </mxCell>
        <mxCell id="n5y9mphLyw2fzNmgePF--65" value="Tamaño" style="text;html=1;align=center;verticalAlign=middle;resizable=0;points=[];autosize=1;strokeColor=none;fillColor=none;spacing=-2;" vertex="1" parent="1">
          <mxGeometry x="365" y="260" width="53" height="18" as="geometry" />
        </mxCell>
        <mxCell id="n5y9mphLyw2fzNmgePF--66" value="Destino" style="text;html=1;align=center;verticalAlign=middle;resizable=0;points=[];autosize=1;strokeColor=none;fillColor=none;spacing=-2;" vertex="1" parent="1">
          <mxGeometry x="418" y="294" width="51" height="18" as="geometry" />
        </mxCell>
        <mxCell id="n5y9mphLyw2fzNmgePF--67" value="ID" style="text;html=1;align=center;verticalAlign=middle;resizable=0;points=[];autosize=1;strokeColor=none;fillColor=none;fontStyle=4;spacing=-2;" vertex="1" parent="1">
          <mxGeometry x="377" y="233" width="22" height="18" as="geometry" />
        </mxCell>
        <mxCell id="n5y9mphLyw2fzNmgePF--68" value="" style="endArrow=none;html=1;rounded=0;exitX=0.47;exitY=-0.04;exitDx=0;exitDy=0;exitPerimeter=0;spacing=-2;" edge="1" parent="1" source="n5y9mphLyw2fzNmgePF--66" target="n5y9mphLyw2fzNmgePF--63">
          <mxGeometry width="50" height="50" relative="1" as="geometry">
            <mxPoint x="480" y="310" as="sourcePoint" />
            <mxPoint x="460" y="320" as="targetPoint" />
          </mxGeometry>
        </mxCell>
        <mxCell id="n5y9mphLyw2fzNmgePF--69" value="" style="endArrow=none;html=1;rounded=0;exitX=0.002;exitY=0.445;exitDx=0;exitDy=0;exitPerimeter=0;spacing=-2;" edge="1" parent="1" source="n5y9mphLyw2fzNmgePF--63" target="n5y9mphLyw2fzNmgePF--67">
          <mxGeometry width="50" height="50" relative="1" as="geometry">
            <mxPoint x="450" y="350" as="sourcePoint" />
            <mxPoint x="500" y="300" as="targetPoint" />
          </mxGeometry>
        </mxCell>
        <mxCell id="n5y9mphLyw2fzNmgePF--70" value="" style="endArrow=none;html=1;rounded=0;entryX=1;entryY=0.75;entryDx=0;entryDy=0;spacing=-2;exitX=0.014;exitY=0.449;exitDx=0;exitDy=0;exitPerimeter=0;" edge="1" parent="1" source="n5y9mphLyw2fzNmgePF--71" target="n5y9mphLyw2fzNmgePF--63">
          <mxGeometry width="50" height="50" relative="1" as="geometry">
            <mxPoint x="510" y="300" as="sourcePoint" />
            <mxPoint x="586.3999999999999" y="219.57999999999998" as="targetPoint" />
          </mxGeometry>
        </mxCell>
        <mxCell id="n5y9mphLyw2fzNmgePF--71" value="Hora_Llegada" style="text;html=1;align=center;verticalAlign=middle;resizable=0;points=[];autosize=1;strokeColor=none;fillColor=none;spacing=-2;" vertex="1" parent="1">
          <mxGeometry x="584" y="278" width="85" height="18" as="geometry" />
        </mxCell>
        <mxCell id="n5y9mphLyw2fzNmgePF--72" value="" style="endArrow=none;html=1;rounded=0;entryX=1;entryY=0.5;entryDx=0;entryDy=0;spacing=-2;" edge="1" parent="1" source="n5y9mphLyw2fzNmgePF--73" target="n5y9mphLyw2fzNmgePF--63">
          <mxGeometry width="50" height="50" relative="1" as="geometry">
            <mxPoint x="310" y="270" as="sourcePoint" />
            <mxPoint x="447.5" y="230" as="targetPoint" />
          </mxGeometry>
        </mxCell>
        <mxCell id="n5y9mphLyw2fzNmgePF--73" value="Hora_Salida" style="text;html=1;align=center;verticalAlign=middle;resizable=0;points=[];autosize=1;strokeColor=none;fillColor=none;spacing=-2;" vertex="1" parent="1">
          <mxGeometry x="592.5" y="242" width="76" height="18" as="geometry" />
        </mxCell>
        <mxCell id="n5y9mphLyw2fzNmgePF--129" value="N" style="text;html=1;align=center;verticalAlign=middle;resizable=0;points=[];autosize=1;strokeColor=none;fillColor=none;spacing=-2;" vertex="1" parent="1">
          <mxGeometry x="499" y="274" width="19" height="18" as="geometry" />
        </mxCell>
        <mxCell id="Tk6mO5gWP-npZVHF49Vz-45" value="" style="endArrow=none;html=1;rounded=0;entryX=1;entryY=0.25;entryDx=0;entryDy=0;exitX=-0.027;exitY=0.5;exitDx=0;exitDy=0;exitPerimeter=0;spacing=-2;" edge="1" parent="1" source="Tk6mO5gWP-npZVHF49Vz-46" target="n5y9mphLyw2fzNmgePF--63">
          <mxGeometry width="50" height="50" relative="1" as="geometry">
            <mxPoint x="527.5" y="241" as="sourcePoint" />
            <mxPoint x="577.5" y="160" as="targetPoint" />
          </mxGeometry>
        </mxCell>
        <mxCell id="Tk6mO5gWP-npZVHF49Vz-46" value="Punto_Origen" style="text;html=1;align=center;verticalAlign=middle;resizable=0;points=[];autosize=1;strokeColor=none;fillColor=none;spacing=-2;" vertex="1" parent="1">
          <mxGeometry x="589" y="206" width="84" height="18" as="geometry" />
        </mxCell>
        <mxCell id="n5y9mphLyw2fzNmgePF--90" value="Tiene" style="rhombus;whiteSpace=wrap;html=1;spacing=-2;" vertex="1" parent="1">
          <mxGeometry x="-66" y="490" width="80" height="80" as="geometry" />
        </mxCell>
        <mxCell id="n5y9mphLyw2fzNmgePF--94" value="1" style="text;html=1;align=center;verticalAlign=middle;resizable=0;points=[];autosize=1;strokeColor=none;fillColor=none;spacing=-2;" vertex="1" parent="1">
          <mxGeometry x="-120" y="509" width="17" height="18" as="geometry" />
        </mxCell>
        <mxCell id="n5y9mphLyw2fzNmgePF--95" value="1" style="text;html=1;align=center;verticalAlign=middle;resizable=0;points=[];autosize=1;strokeColor=none;fillColor=none;spacing=-2;" vertex="1" parent="1">
          <mxGeometry x="75" y="509" width="17" height="18" as="geometry" />
        </mxCell>
        <mxCell id="n5y9mphLyw2fzNmgePF--92" style="rounded=0;orthogonalLoop=1;jettySize=auto;html=1;entryX=0;entryY=0.5;entryDx=0;entryDy=0;endArrow=none;endFill=0;spacing=-2;exitX=0.991;exitY=0.501;exitDx=0;exitDy=0;exitPerimeter=0;" edge="1" parent="1" source="n5y9mphLyw2fzNmgePF--90" target="n5y9mphLyw2fzNmgePF--74">
          <mxGeometry relative="1" as="geometry" />
        </mxCell>
        <mxCell id="n5y9mphLyw2fzNmgePF--93" style="rounded=0;orthogonalLoop=1;jettySize=auto;html=1;endArrow=none;endFill=0;startArrow=oval;startFill=1;spacing=-2;exitX=0.013;exitY=0.501;exitDx=0;exitDy=0;exitPerimeter=0;entryX=1;entryY=0.5;entryDx=0;entryDy=0;" edge="1" parent="1" source="n5y9mphLyw2fzNmgePF--90" target="n5y9mphLyw2fzNmgePF--85">
          <mxGeometry relative="1" as="geometry" />
        </mxCell>
        <mxCell id="n5y9mphLyw2fzNmgePF--86" value="Ubicacion" style="text;html=1;align=center;verticalAlign=middle;resizable=0;points=[];autosize=1;strokeColor=none;fillColor=none;spacing=-2;" vertex="1" parent="1">
          <mxGeometry x="-281" y="580" width="63" height="18" as="geometry" />
        </mxCell>
        <mxCell id="n5y9mphLyw2fzNmgePF--88" value="" style="endArrow=none;html=1;rounded=0;exitX=0.47;exitY=-0.04;exitDx=0;exitDy=0;exitPerimeter=0;entryX=0.11;entryY=0.993;entryDx=0;entryDy=0;entryPerimeter=0;spacing=-2;" edge="1" parent="1" source="n5y9mphLyw2fzNmgePF--86" target="n5y9mphLyw2fzNmgePF--85">
          <mxGeometry width="50" height="50" relative="1" as="geometry">
            <mxPoint x="-470" y="1062" as="sourcePoint" />
            <mxPoint x="-490" y="1072" as="targetPoint" />
          </mxGeometry>
        </mxCell>
        <mxCell id="n5y9mphLyw2fzNmgePF--74" value="Camiones" style="rounded=0;whiteSpace=wrap;html=1;spacing=-2;" vertex="1" parent="1">
          <mxGeometry x="95" y="500" width="120" height="60" as="geometry" />
        </mxCell>
        <mxCell id="n5y9mphLyw2fzNmgePF--77" value="Modelo" style="text;html=1;align=center;verticalAlign=middle;resizable=0;points=[];autosize=1;strokeColor=none;fillColor=none;spacing=-2;" vertex="1" parent="1">
          <mxGeometry x="51" y="588" width="49" height="18" as="geometry" />
        </mxCell>
        <mxCell id="n5y9mphLyw2fzNmgePF--78" value="Matricula" style="text;html=1;align=center;verticalAlign=middle;resizable=0;points=[];autosize=1;strokeColor=none;fillColor=none;fontStyle=4;spacing=-2;" vertex="1" parent="1">
          <mxGeometry x="116" y="588" width="59" height="18" as="geometry" />
        </mxCell>
        <mxCell id="n5y9mphLyw2fzNmgePF--79" value="" style="endArrow=none;html=1;rounded=0;exitX=0.47;exitY=-0.04;exitDx=0;exitDy=0;exitPerimeter=0;entryX=0.11;entryY=0.993;entryDx=0;entryDy=0;entryPerimeter=0;spacing=-2;" edge="1" parent="1" source="n5y9mphLyw2fzNmgePF--77" target="n5y9mphLyw2fzNmgePF--74">
          <mxGeometry width="50" height="50" relative="1" as="geometry">
            <mxPoint x="125" y="632" as="sourcePoint" />
            <mxPoint x="105" y="642" as="targetPoint" />
          </mxGeometry>
        </mxCell>
        <mxCell id="n5y9mphLyw2fzNmgePF--80" value="" style="endArrow=none;html=1;rounded=0;entryX=0.6;entryY=0;entryDx=0;entryDy=0;entryPerimeter=0;exitX=0.417;exitY=1.007;exitDx=0;exitDy=0;exitPerimeter=0;spacing=-2;" edge="1" parent="1" source="n5y9mphLyw2fzNmgePF--74" target="n5y9mphLyw2fzNmgePF--78">
          <mxGeometry width="50" height="50" relative="1" as="geometry">
            <mxPoint x="95" y="672" as="sourcePoint" />
            <mxPoint x="145" y="622" as="targetPoint" />
          </mxGeometry>
        </mxCell>
        <mxCell id="n5y9mphLyw2fzNmgePF--85" value="GPS" style="rounded=0;whiteSpace=wrap;html=1;spacing=-2;" vertex="1" parent="1">
          <mxGeometry x="-240" y="500" width="120" height="60" as="geometry" />
        </mxCell>
        <mxCell id="n5y9mphLyw2fzNmgePF--87" value="ID" style="text;html=1;align=center;verticalAlign=middle;resizable=0;points=[];autosize=1;strokeColor=none;fillColor=none;fontStyle=4;spacing=-2;" vertex="1" parent="1">
          <mxGeometry x="-185" y="580" width="22" height="18" as="geometry" />
        </mxCell>
        <mxCell id="n5y9mphLyw2fzNmgePF--89" value="" style="endArrow=none;html=1;rounded=0;entryX=0.6;entryY=0;entryDx=0;entryDy=0;entryPerimeter=0;exitX=0.417;exitY=1.007;exitDx=0;exitDy=0;exitPerimeter=0;spacing=-2;" edge="1" parent="1" source="n5y9mphLyw2fzNmgePF--85" target="n5y9mphLyw2fzNmgePF--87">
          <mxGeometry width="50" height="50" relative="1" as="geometry">
            <mxPoint x="-220" y="682" as="sourcePoint" />
            <mxPoint x="-170" y="632" as="targetPoint" />
          </mxGeometry>
        </mxCell>
      </root>
    </mxGraphModel>
  </diagram>
</mxfile>
